Peak,Elev-M,Prom-M,Isol-Km,Country,Range,Island
Mount Everest,8849,8849,Infinite,China/Nepal,Himalaya,
K2,8614,4020,1315.6,Pakistan/China,Central Asia Ranges,
Dhaulagiri,8167,3357,317.4,Nepal,Himalaya,
Nanda Devi,7816,3139,388,India,Himalaya,
Namcha Barwa,7782,4106,706.9,China,Himalaya,
Gongga Shan,7556,3642,660.6,China,Tibet and Central China,
Pik Pobeda,7439,4146,558,Kyrgyzstan/China,Tien Shan,
Muztag,6973,1943,596.4,China,Tibet and Central China,
Aconcagua,6962,6962,16517.6,Argentina,Andes,
Ojos del Salado,6893,3685,630.5,Chile/Argentina,Andes,
Nevado Huascarán,6768,2798,2207.5,Peru,Andes,
Nevado Sajama,6542,2428,732.6,Bolivia,Andes,
Nevado Coropuna,6405,2208,442.9,Peru,Andes,
Amnye Maqen,6282,1960,552.5,China,Tibet and Central China,
Volcán Chimborazo,6267,4122,845.7,Ecuador,Andes,
Denali,6190,6140,7450.2,United States,Alaska-Yukon Ranges,
Aucanquilcha,6176,2165,331.7,Chile,Andes,
Mount Logan,5956,5247,622.8,Canada,Alaska-Yukon Ranges,
Kilimanjaro,5895,5885,5509.6,Tanzania,East Africa Mountains,
Altun Shan,5830,2528,373.5,China,Tibet and Central China,
Kangze'gyai,5808,2231,359.2,China,Tibet and Central China,
Pico Cristóbal Colón,5730,5539,1287.1,Colombia,Coastal South America,
Elbrus,5642,4741,2469.9,Russia,Caucasus Mountains,
Pico de Orizaba,5636,4922,2690.1,Mexico,Central Mexican Ranges,
Damavand,5610,4667,1164.7,Iran,Iranian Plateau,
Bogda Feng,5445,4122,609.4,China,Tien Shan,
Ritacuba Blanco,5410,3645,499.2,Colombia,Andes,
Nevado del Huila,5390,2650,386.4,Colombia,Andes,
Mount Kenya,5199,3825,319.9,Kenya,East Africa Mountains,
Mount Ararat,5137,3611,379.3,Turkey,Anatolia,
Mount Stanley,5109,3924,829.8,Congo DRC/Uganda,East Africa Mountains,
Vinson Massif,4892,4892,4910.7,Antarctica,West Antarctica Ranges,
Tomort Feng,4886,3239,420.3,China,Tien Shan,
Carstensz Pyramid,4884,4884,5235,Indonesia,New Guinea,New Guinea
Sabalan,4811,3283,344.5,Iran,Iranian Plateau,
Mont Blanc,4810,4697,2812,France/Italy,Alps,
Puncak Mandala,4757,2759,350.9,Indonesia,New Guinea,New Guinea
Klyuchevskaya Sopka,4750,4649,2746.9,Russia,Eastern Siberia,
Ras Dashen,4543,3990,1482.1,Ethiopia,Ethiopian Highlands,
Mount Kirkpatrick,4528,2601,1585.2,Antarctica,Transantarctic Mountains,
Mount Wilhelm,4509,2959,537.6,Papua New Guinea,New Guinea,New Guinea
Gora Belukha,4506,3343,668.5,Russia/Kazakhstan,Mongolia Ranges,
Hezar,4500,2741,755.9,Iran,Iranian Plateau,
Mount Whitney,4419,3072,2649.5,United States,Pacific Ranges,
Dena,4409,2604,556.3,Iran,Zagros Mountains,
Mount Elbert,4399,2765,1079.1,United States,Rocky Mountains,
Mount Rainier,4392,4037,1176.7,United States,Pacific Ranges,
Tullu Dimtu,4377,2504,723.7,Ethiopia,Ethiopian Highlands,
Mount Elgon,4321,2458,336.7,Uganda,East Africa Mountains,
Mount Shasta,4317,2975,538.7,United States,Pacific Ranges,
Mount Sidley,4285,2517,943.9,Antarctica,West Antarctica Ranges,
Nevado de Colima,4260,2700,405.2,Mexico,Central Mexican Ranges,
Munkh Khairkhan,4231,1860,369.5,Mongolia,Mongolia Ranges,
Volcán Tajumulco,4220,3980,719,Guatemala,Central America Ranges,
Gannett Peak,4207,2157,467.3,United States,Rocky Mountains,
Mauna Kea,4205,4205,3946.9,United States,Polynesia,Hawaii (Big Island)
Jebel Toubkal,4167,3755,2078.2,Morocco,Atlas Mountains,
Mount Minto,4166,2617,1244.8,Antarctica,Transantarctic Mountains,
Kinabalu,4095,4095,2513.1,Malaysia,Malay Archipelago,Borneo
Dome Argus,4093,1641,1236.6,Antarctica,East Antarctica Ranges,
Cerro San Valentín,4058,3696,1130.2,Chile,Andes,
Mount Cameroon,4040,3901,2337.7,Cameroon,West Africa Mountains,
Mount Lister,4025,2325,534.2,Antarctica,Transantarctic Mountains,
Mount Waddington,4019,3279,561.8,Canada,Pacific Ranges,
Otgon Tenger Uul,4000,2259,317.9,Mongolia,Mongolia Ranges,
Wheeler Peak,3982,2305,373,United States,Intermountain West,
Mount Robson,3959,2819,459.5,Canada,Rocky Mountains,
Tergun Bogd,3957,1979,356.2,Mongolia,Mongolia Ranges,
Yushan,3951,3951,1814.7,Taiwan,East China,Taiwan
Kuh-e Taftan,3941,2901,382,Iran,Iranian Plateau,
Faure Peak,3940,1514,332.7,Antarctica,Transantarctic Mountains,
Erciyes Dagi,3917,2419,551.3,Turkey,Anatolia,
Humphreys Peak,3851,1841,395.7,United States,Intermountain West,
Cerro Chirripó,3819,3755,877.4,Costa Rica,Central America Ranges,
Valkyrie Dome,3810,130,558.1,Antarctica,East Antarctica Ranges,
Gunung Kerinci,3805,3805,1904,Indonesia,Malay Archipelago,Sumatra
Fuji-san,3776,3776,2076.7,Japan,Japanese Archipelago,Honshu
Taibai Shan,3750,2232,302.2,China,East China,
Volcán Lanín,3747,2631,303.3,Chile/Argentina,Andes,
Gunung Rinjani,3726,3726,1600.7,Indonesia,Malay Archipelago,Lombok
Mount Cook,3724,3724,3139.1,New Zealand,New Zealand,South Island
Cerro el Potosí,3720,1870,569.5,Mexico,Central Mexican Ranges,
Mount Hewson,3720,1406,308.1,Antarctica,Transantarctic Mountains,
Pico de Teide,3718,3718,893.1,Spain,Mid-Atlantic Islands,Tenerife
Cerro el Nacimiento,3700,2120,326.8,Mexico,Central Mexican Ranges,
Gunnbjørn Fjeld,3694,3694,3254.1,Greenland,North America Arctic Islands,Greenland
Gunung Semeru,3676,3676,390.9,Indonesia,Malay Archipelago,Java
Jabal an Nabi Shu'ayb,3666,3326,552.1,Yemen,Arabian Peninsula,
Gora Munku-Sardyk,3491,1578,465.7,Russia/Mongolia,Central Siberia,
Thabana Ntlenyana,3482,2390,3003.8,Lesotho,Southern Africa,
Mulhacén,3479,3289,526.3,Spain,Iberian Peninsula,
Gunung Rantemario,3478,3478,681.3,Indonesia,Malay Archipelago,Sulawesi
Leuser,3466,2940,755.2,Indonesia,Malay Archipelago,Sumatra
Emi Koussi,3445,2934,1998.8,Chad,Sahara Desert Ranges,
Gunung Slamet,3428,3284,419.1,Indonesia,Malay Archipelago,Java
Pico de Aneto,3404,2812,507.5,Spain,Iberian Peninsula,
Mont Forel,3391,1596,356.7,Greenland,North America Arctic Islands,Greenland
Mount Menzies,3355,,391.3,Antarctica,East Antarctica Ranges,
Cerro Gordo,3352,1372,423.1,Mexico,Central Mexican Ranges,
Etna,3323,3323,998.8,Italy,Italian Peninsula and Islands,Sicily
Kuh-e Siah Khvani,3314,1870,378.2,Iran,Iranian Plateau,
Cerro Mohinora,3303,843,371.6,Mexico,Central Mexican Ranges,
Mount Hope,3239,2242,1113.5,Antarctica,West Antarctica Ranges,
Greenland Ice Cap High Point,3234,537,489.5,Greenland,North America Arctic Islands,Greenland
Dome Charlie,3233,8,971.9,Antarctica,East Antarctica Ranges,
Kinyeti,3187,2120,346.6,South Sudan,East Africa Mountains,
Dempo,3173,2450,328.4,Indonesia,Malay Archipelago,Sumatra
Fan Si Pan,3142,1612,328.3,Vietnam,Southeast Asia,
Mount Siple,3110,3110,358.6,Antarctica,West Antarctica Ranges,Siple
Shennong Deng,3105,67,363.4,China,East China,
Pico Duarte,3098,3098,921.3,Dominican Republic,Caribbean Area,Hispaniola
Picacho del Diablo,3095,2115,334.3,Mexico,Pacific Ranges,
Mount Ratz,3090,2430,310.9,Canada,Pacific Ranges,
Qurnat as Sawda,3088,2393,363,Lebanon,Levant Ranges,
Pik BAM,3072,2230,1227.8,Russia,Baikal Area Ranges,
Piton des Neiges,3071,3071,2766.6,Reunion,Indian Ocean Islands,Réunion
Kizlar Sivrisi,3070,1966,369.5,Turkey,Anatolia,
Wutai Shan,3058,1781,651.5,China,East China,
Mount Victoria,3053,2131,479.9,Myanmar,Southeast Asia,
Sojol,3030,2713,371.9,Indonesia,Malay Archipelago,Sulawesi
Gunung Binaiya,3027,3027,682.4,Indonesia,Malay Archipelago,Seram
Ulysses Mountain,3024,2284,435.7,Canada,Rocky Mountains,
Mount Seelig,3022,899,437.7,Antarctica,West Antarctica Ranges,
Jebel Shams,3018,2818,522.4,Oman,Arabian Peninsula,
Jabal Marrah,3012,2482,969.2,Sudan,Sahara Desert Ranges,
Gora Pobeda,3003,2443,1234.2,Russia,Eastern Siberia,
Sapitwa Peak,3002,2319,1271.6,Malawi,Southern Africa,
Pico da Neblina,2995,2887,899.3,Brazil,Guiana Highlands,
Mtorwi,2980,1688,533.2,Tanzania,East Africa Mountains,
Mus-Khaya,2973,,379.5,Russia,Eastern Siberia,
Ramelau,2963,2963,770.5,East Timor,Malay Archipelago,Timor
Arfak,2955,2775,351,Indonesia,New Guinea,New Guinea
Mount Apo,2954,2954,904.9,Philippines,Philippines,Mindanao
Keele Peak,2952,2152,527.7,Canada,Alaska-Yukon Ranges,
Mount Paget,2934,2934,2206,South Georgia,Southeast South America,South Georgia
Musala,2925,2473,810,Bulgaria,Balkan Peninsula,
Mount Pulag,2922,2922,666.7,Philippines,Philippines,Luzon
Corno Grande,2912,2476,445.3,Italy,Italian Peninsula and Islands,
Tahat,2908,2328,1153.2,Algeria,Sahara Desert Ranges,
Pico da Bandeira,2891,2641,2344.1,Brazil,Brazilian Highlands,
Tapuae-o-Uenuku,2885,2022,318.8,New Zealand,New Zealand,South Island
South Greenland Icecap High Point,2882,396,558.6,Greenland,North America Arctic Islands,Greenland
Maromokotro,2876,2876,1041.7,Madagascar,Indian Ocean Islands,Madagascar
Shishaldin Volcano,2869,2869,877,United States,Alaska-Yukon Ranges,Unimak Island
Cerro Marahuaca,2832,2289,322.3,Venezuela,Guiana Highlands,
Pico do Fogo,2829,2829,1672.4,Cape Verde,Mid-Atlantic Islands,Fogo
Monte Roraima,2810,2338,538.6,Venezuela,Guiana Highlands,
Gora Asralt-Khairkhan,2799,1426,439.9,Mongolia,Mongolia Ranges,
Pico da Pedra da Mina,2798,2068,384.5,Brazil,Brazilian Highlands,
Mount Ruapehu,2797,2797,340.7,New Zealand,New Zealand,North Island
Jabal Hamoyet,2780,1393,304.4,Sudan,Ethiopian Highlands,
Mount Français,2761,2761,574,Antarctica,West Antarctica Ranges,Anvers Island
Pico Naiguatá,2753,2443,368.8,Venezuela,Coastal South America,
Big Ben,2745,2745,2026.1,Heard and McDonald Islands,Indian Ocean Islands,Heard Island
Paektu-san,2744,2593,1014.6,China/North Korea,Korea-Amur Area,
Mount Isto,2736,2401,633.5,United States,Alaska-Yukon Ranges,
Mount Balbi,2715,2715,752.3,Papua New Guinea,Melanesia,Bougainville
Kapalatmada,2700,2700,358.4,Indonesia,Malay Archipelago,Buru
Anamudi,2695,2480,2110,India,Indian Subcontinent,
Pic Boby,2658,1875,889.8,Madagascar,Indian Ocean Islands,Madagascar
Gerlachovský štít,2654,2349,510,Slovakia,Eastern Europe Ranges,
Torrecerredo,2648,1931,346.5,Spain,Iberian Peninsula,
Lukwangule Peak,2645,2113,380.3,Tanzania,East Africa Mountains,
Tsiafajavona,2643,1663,317.3,Madagascar,Indian Ocean Islands,Madagascar
Gebel Katherîna,2629,2399,572.2,Egypt,Levant Ranges,
Nattaung,2623,1726,413.3,Myanmar,Southeast Asia,
Moro de Môco,2620,1510,1727.4,Angola,Southern Africa,
Barbeau Peak,2616,2616,753,Canada,North America Arctic Islands,Ellesmere Island
Ngoc Linh,2598,2208,609.3,Vietnam,Southeast Asia,
Cerro Tristeza,2596,2456,313.2,Venezuela,Coastal South America,
Inyangani,2592,1515,389.4,Zimbabwe,Southern Africa,
Pico Almanzor,2591,1689,326.9,Spain,Iberian Peninsula,
Ilgaz Daglari,2587,1544,310,Turkey,Anatolia,
Mount Halcon,2585,2585,366.2,Philippines,Philippines,Mindoro
Cerro Darwin,2580,2580,467.3,Chile,Coastal South America,Tierra del Fuego
Brandberg,2573,1769,963.2,Namibia,Southern Africa,
Fanjing Shan,2572,1764,398.2,China,East China,
Ledyanaya,2562,2446,734.5,Russia,Eastern Siberia,
Moldoveanu,2544,2049,387,Romania,Eastern Europe Ranges,
Pidurutalagala,2524,2524,519.2,Sri Lanka,Indian Subcontinent,Sri Lanka
Mount Igikpak,2523,1852,453.3,United States,Alaska-Yukon Ranges,
Mount Veniaminof,2507,2492,336.7,United States,Alaska-Yukon Ranges,
Moltkeblick,2479,1318,316.1,Namibia,Southern Africa,
Galdhøpiggen,2469,2366,1568.3,Norway,Scandinavia-European Arctic,
Shimbiris,2460,1471,406.9,Somalia,Ethiopian Highlands,
Mount Ida,2456,2456,439.9,Greece,Balkan Peninsula,Crete
Khrebet Orulgan High Point,2409,1690,524,Russia,Eastern Siberia,
Jebel Varjan,2389,1426,323.3,Saudi Arabia,Arabian Peninsula,
Stanovoy Khrebet High Point,2380,1683,669.2,Russia,Eastern Siberia,
Yam-Alin Range High Point,2370,1915,367.9,Russia,Korea-Amur Area,
Kartala,2361,2361,652.7,Comoros,Indian Ocean Islands,Grande Comore
Montanha do Pico,2351,2351,1451.3,Portugal,Mid-Atlantic Islands,Pico
Mount Popomanaseu,2335,2335,694.6,Solomon Islands,Melanesia,Guadalcanal
Die Berg,2331,676,350.5,South Africa,Southern Africa,
Djebel Chélia,2328,1612,779.1,Algeria,Atlas Mountains,
Seweweekspoort Peak,2325,1543,348.8,South Africa,Southern Africa,
Bukit Raya,2300,2017,576.7,Indonesia,Malay Archipelago,Borneo
Asahi-dake,2291,2291,803.9,Japan,Japanese Archipelago,Hokkaido
Beerenberg,2277,2277,596.4,Jan Mayen,Scandinavia-European Arctic,Jan Mayen
Mont Orohena,2241,2241,4128.1,French Polynesia,Polynesia,Tahiti
Mount Kosciuszko,2228,2228,1894.3,Australia,Great Dividing Range,
Jebel Erba,2217,,350.5,Sudan,Sahara Desert Ranges,
Lord Hill,2202,1202,490,Namibia,Southern Africa,
Gunung Tahan,2187,2117,416.9,Malaysia,Southeast Asia,
Huanggang Shan,2170,1965,491.8,China,East China,
Djebel Aïssa,2160,963,303,Algeria,Atlas Mountains,
England Peak,2150,,422.9,Antarctica,Transantarctic Mountains,
Mount Vsevidof,2149,2149,358.1,United States,Alaska-Yukon Ranges,Umnak Island
Mount Odin,2143,2143,592.1,Canada,North America Arctic Islands,Baffin Island
Nanfengmian,2120,1902,366.3,China,East China,
Buku Sibela,2111,2111,309.8,Indonesia,Malay Archipelago,Bacan
Hvannadalshnúkur,2110,2110,714.9,Iceland,Scandinavia-European Arctic,Iceland
Kebnekaise-Nordtoppen,2097,1735,757.2,Sweden,Scandinavia-European Arctic,
Mount Mantalingajan,2085,2085,307.6,Philippines,Philippines,Palawan
Sierra La Laguna High Point,2080,1900,339,Mexico,Pacific Ranges,
Queen Mary's Peak,2060,2060,2661.7,"Saint Helena, Ascension, Tristan da Cunha",Mid-Atlantic Islands,Tristan da Cunha
Mount Mitchell,2037,1856,1913.5,United States,Appalachian Mountains,
Serra do Barbado,2033,1383,585.3,Brazil,Brazilian Highlands,
Pico de São Tomé,2024,2024,405.9,Sao Tome and Principe,West Africa Mountains,São Tomé
Mont Bagzane,2022,1291,640.8,Niger,Sahara Desert Ranges,
Ishizuchi-san,1982,1982,420.2,Japan,Japanese Archipelago,Shikoku
Jebel Hamata,1961,1464,300.4,Egypt,Sahara Desert Ranges,
Volcán Las Tres Vírgenes,1951,1621,339.2,Mexico,Pacific Ranges,
Halla-san,1950,1950,613.1,South Korea,Korea-Amur Area,Cheju-do
Mount Irving,1950,1950,477.3,Antarctica,West Antarctica Ranges,Clarence Island
Loma Mansa,1945,1665,1570.8,Sierra Leone,West Africa Mountains,
Angilaaq Mountain,1944,1944,576.6,Canada,North America Arctic Islands,Bylot Island
Miyanoura-dake,1936,1936,453.4,Japan,Japanese Archipelago,Yaku-shima
Jabal Uweinat,1934,1263,590.9,Libya/Sudan,Sahara Desert Ranges,
Mount Washington,1917,1874,1318.9,United States,Appalachian Mountains,
Gora Narodnaya,1895,1772,1835.4,Russia,Ural Mountains,
Mumpu-Velume,1894,602,481,Zambia,Southern Africa,
Besar,1892,1792,386.9,Indonesia,Malay Archipelago,Borneo
Chantalskiy Khrebet High Point,1887,1492,723.5,Russia,Eastern Siberia,
Tabwémasana,1879,1879,917.2,Vanuatu,Melanesia,Espiritu Santo
Pico Paraná,1877,1126,382.4,Brazil,Brazilian Highlands,
Pico Ruivo,1862,1862,449.8,Portugal,Mid-Atlantic Islands,Madeira
Mauga Silisili,1858,1858,2245.2,Samoa,Polynesia,Savai‘i
Gakarosa,1855,545,357.7,South Africa,Southern Africa,
Gora Oblachnaya,1855,1426,421,Russia,Korea-Amur Area,
Kisimngiuqtuq Peak,1851,1571,358.5,Canada,North America Arctic Islands,Baffin Island
Grand Ross,1850,1850,477,French Southern Lands,Indian Ocean Islands,Kerguelen Island
Wuzhi Shan,1840,1840,403.6,China,East China,Hainan
Jabal Samhan,1821,952,567.2,Oman,Arabian Peninsula,
Pik 1816,1816,1310,448,Russia,Eastern Siberia,
Phnom Aural,1813,1744,420.3,Cambodia,Southeast Asia,
Tanaga Volcano,1806,1806,655.5,United States,Alaska-Yukon Ranges,Tanaga Island
Khao Luang,1780,1715,358,Thailand,Southeast Asia,
Shere Hills,1776,1297,374.2,Nigeria,West Africa Mountains,
Mont Richard-Molard,1752,1292,346.5,Ivory Coast/Guinea,West Africa Mountains,
Guru Sikhar,1722,1372,615.1,India,Indian Subcontinent,
Newtontoppen,1713,1713,743.7,Svalbard,Scandinavia-European Arctic,Spitsbergen
Volcán Wolf,1707,1707,1319.3,Ecuador,Coastal South America,Isabela
Arma Konda,1680,1290,907.1,India,Indian Subcontinent,
Gora Kamen,1678,1388,1286.4,Russia,Central Siberia,
Serra Pouso Alto-Pico 1676,1676,906,521.8,Brazil,Brazilian Highlands,
Mount Caubvick,1652,1367,791.4,Canada,North America Plains,
Kalsubai,1646,1000,567.2,India,Indian Subcontinent,
Lars Christensentoppen,1640,1640,748,Antarctica,West Antarctica Ranges,Peter I Island
Gora Yamantau,1638,1330,1150.7,Russia,Ural Mountains,
Mont Panié,1629,1629,606,New Caledonia,Melanesia,New Caledonia
Mount Ossa,1617,1617,488.8,Australia,Lesser Australian Ranges,Tasmania
Bartle Frere,1611,1316,882.4,Australia,Great Dividing Range,
Anderson Dome,1602,446,469.5,Antarctica,West Antarctica Ranges,
Dillingham High Point,1600,1356,301.1,United States,Alaska-Yukon Ranges,
Kawaikini,1598,1598,327.3,United States,Polynesia,Kauai
Brumlow Top,1584,1103,450.4,Australia,Great Dividing Range,
Gora Kanzhakovskiy Kamen,1570,1159,477.6,Russia,Ural Mountains,
Gora Aksoran,1565,843,429.3,Kazakhstan,Tien Shan,
Mont du Guera,1565,1138,634,Chad,Sahara Desert Ranges,
Novaya Zemlya High Point,1547,1547,1077.4,Russia,Scandinavia-European Arctic,North Novaya Zemlya
Roman-Kosh,1545,1541,306.7,Russia,Eastern Europe Ranges,
Vulkan Milna,1539,1539,339.3,Russia,Japanese Archipelago,Ostrov Simushir
Colline Mali,1538,1041,342.5,Guinea,West Africa Mountains,
Mount Zeil,1531,1322,1549.2,Australia,Lesser Australian Ranges,
Brown Peak,1524,1524,366.2,Antarctica,East Antarctica Ranges,Sturge Island
Ilkhuri-Alin/Yilehuli Shan,1515,657,352.9,China,Mongolia Ranges,
Riyadh Region High Point,1503,542,327.6,Saudi Arabia,Arabian Peninsula,
Socotra High Point,1503,1503,468.8,Yemen,Indian Ocean Islands,Socotra
La Soufrière,1467,1467,672.6,Guadeloupe,Caribbean Area,Basse-Terre
Jebel Temading,1460,863,401.9,Sudan,Sahara Desert Ranges,
Mount Osborn,1437,1330,453.5,United States,Alaska-Yukon Ranges,
Mount Woodroffe,1435,945,329.7,Australia,Lesser Australian Ranges,
Mount Belinda,1375,1375,716.8,South Georgia,Southeast South America,Montagu Island
Tsodilo Hills,1375,337,351.9,Botswana,Southern Africa,
Mont Toussoro,1367,693,366.4,Central African Republic,West Africa Mountains,
Parasnath,1366,1010,334.7,India,Indian Subcontinent,
Ennedi High Point,1354,487,357.1,Chad,Sahara Desert Ranges,
Cerro de Los Inocentes,1350,1350,819.7,Chile,Coastal South America,Alexander Selkirk
Dhupgarth,1350,938,489.7,India,Indian Subcontinent,
Ben Nevis,1345,1345,738.6,United Kingdom,Northwest Europe,Great Britain
Cerro de Punta,1338,1338,393.6,Puerto Rico,Caribbean Area,Puerto Rico
Mount Victoria,1324,1324,1037,Fiji Islands,Melanesia,Viti Levu
Serrania de Santiago,1320,956,367.5,Bolivia,Brazilian Highlands,
Isla Guadalupe High Point,1300,1300,316,Mexico,Pacific Ranges,Guadalupe
Mont Jacques-Cartier,1276,1096,405.7,Canada,Appalachian Mountains,
Mont Temetiu,1276,1276,1407.5,French Polynesia,Polynesia,Hiva Oa
Mount Nivea,1265,1265,471.7,Antarctica,West Antarctica Ranges,Coronation Island
Mount Meharry,1249,834,1308.5,Australia,Lesser Australian Ranges,
Jebel Kuror,1240,843,407.1,Sudan,Sahara Desert Ranges,
Cerro Tres Picos,1239,1061,540.7,Argentina,Southeast South America,
Consuelo Tableland,1232,887,437.9,Australia,Great Dividing Range,
Julianatop,1230,1141,373,Suriname,Guiana Highlands,
Mascarin Peak,1230,1230,1804.9,South Africa,Indian Ocean Islands,Marion Island
Pico do Jabre,1197,559,567.8,Brazil,Brazilian Highlands,
Gora Yudychvumchorr,1191,1051,509.7,Russia,Scandinavia-European Arctic,
Mealy Mountains High Point,1185,837,519,Canada,North America Plains,
Saint Mary Peak,1171,1021,860.7,Australia,Lesser Australian Ranges,
Daik,1165,1165,343.7,Indonesia,Malay Archipelago,Lingga
Hombori Tondo,1155,845,1008,Mali,West Africa Mountains,
Pico Serra Branca,1154,733,405.7,Brazil,Brazilian Highlands,
Girnar,1145,1038,350.5,India,Indian Subcontinent,
Pico San Juan,1140,58,393.9,Cuba,Caribbean Area,Cuba
Laoshan,1133,1076,315.8,China,East China,
Gori Ulitau,1131,657,364,Kazakhstan,Tien Shan,
Mont Yapeitso,1128,681,467.1,Canada,North America Plains,
Pico do Tracuá,1126,837,597.8,Brazil,Brazilian Highlands,
Tamyr High Point,1125,727,754.4,Russia,Central Siberia,
Jabal al Hasawinah,1120,591,443.3,Libya,Sahara Desert Ranges,
Kao,1109,1109,609.6,Tonga,Polynesia,Kao
Gora Yenashimskiy Polkan,1104,801,534.6,Russia,Central Siberia,
Bluff Knoll,1095,856,1225.7,Australia,Lesser Australian Ranges,
Snowdon,1085,1038,368.7,United Kingdom,Northwest Europe,Great Britain
Mount Tuskomera,1084,1084,356.7,Vanuatu,Melanesia,Tanna
Qarat ar Razzah,1080,554,328,Libya,Sahara Desert Ranges,
Mont Bengoué,1070,541,362.6,Gabon,West Africa Mountains,
Malkhet Hills,1052,641,321.1,India,Indian Subcontinent,
Cerro Evermann,1050,1050,491.2,Mexico,Central Mexican Ranges,Isla Socorro
Mont Marion-Dufresne,1050,1050,1107.8,French Southern Lands,Indian Ocean Islands,Ile de l'Est
Carrauntoohil,1039,1039,402.3,Ireland,Northwest Europe,Ireland
Mount Wells,982,616,740.7,Australia,Lesser Australian Ranges,
Mont Agou,980,745,887.7,Togo,West Africa Mountains,
Agrihan High Point,977,977,1898,Northern Marianas,Micronesia,Agrihan
Dakhret-Musba,968,389,387.6,Libya,Sahara Desert Ranges,
Karpinsky Icecap,963,963,450.7,Russia,Eastern Siberia,October Revolution Island
Gora Sinyukha,947,561,449,Kazakhstan,Tien Shan,
Kuokda Tretya,943,516,331.8,Russia,Central Siberia,
Kdeyyat ej Joul,915,596,648.7,Mauritania,Sahara Desert Ranges,
Attu Mountain,914,914,327.5,United States,Alaska-Yukon Ranges,Attu Island
Minami Iwo Jima,913,913,647,Japan,Japanese Archipelago,Minami Iwo Jima
Edinburgh Peak,910,910,406.5,"Saint Helena, Ascension, Tristan da Cunha",Mid-Atlantic Islands,Gough Island
Idanre Hill,908,577,320.4,Nigeria,West Africa Mountains,
Pik 908,908,673,337.8,Russia,Central Siberia,
Morne Seychellois,905,905,1107.8,Seychelles,Indian Ocean Islands,Mahé
Serra dos Carajás-Pico 898,898,628,641.9,Brazil,Brazilian Highlands,
Mont de la Dives,881,881,1408.7,French Southern Lands,Indian Ocean Islands,Île Amsterdam
Slættaratindur,880,880,446.6,Faroe Islands,Scandinavia-European Arctic,Eysturoy
Jebel Akhdar High Point,879,771,337.6,Libya,Sahara Desert Ranges,
Mount Gower,875,875,602.3,Australia,New Zealand,Lord Howe Island
Melville Hills High Point,869,581,484.6,Canada,North America Plains,
Green Mountain,859,859,1798.2,"Saint Helena, Ascension, Tristan da Cunha",Mid-Atlantic Islands,Ascension Island
Peak 843,843,501,451.3,Brazil,Guiana Highlands,
Magazine Mountain,839,650,601.4,United States,North America Plains,
Baldy Mountain,831,381,356.2,Canada,North America Plains,
Mcilwraith Range,824,682,301.4,Australia,Great Dividing Range,
Diana's Peak,823,823,1293.2,"Saint Helena, Ascension, Tristan da Cunha",Mid-Atlantic Islands,St. Helena
The Cabox,812,812,447.2,Canada,Appalachian Mountains,Newfoundland
Ngihneni,780,780,1316.7,Micronesia,Micronesia,Pohnpei
Olavtoppen,780,780,1851.2,Bouvet Island,Mid-Atlantic Islands,Bouvet Island
Serra do Cachimbo,771,406,452.1,Brazil,Brazilian Highlands,
Melville Island High Point,762,762,652,Canada,North America Arctic Islands,Melville Island
Tuley,746,291,322.6,Niger,Sahara Desert Ranges,
Saddle Peak,732,732,555.6,India,Southeast Asia,North Andaman
Mount Dick,705,705,443,New Zealand,New Zealand,Adams Island
Mount Usborne,705,705,507.9,Falkland Islands,Southeast South America,East Falkland
Eagle Mountain,701,403,703.4,United States,North America Plains,
Pan de Guajaibón,699,665,333.3,Cuba,Caribbean Area,Cuba
Ishpatina Ridge,693,394,397.7,Canada,North America Plains,
Pico Trinidade,690,690,1147.2,Brazil,Mid-Atlantic Islands,Trindade
Serra Negra,686,346,313,Brazil,Brazilian Highlands,
West Byrranga High Point,671,652,316.9,Russia,Central Siberia,
Gora Boktybay,657,339,422.7,Kazakhstan,Ural Mountains,
Te Manga,653,653,995,Cook Islands,Polynesia,Rarotonga
Victoria Island High Point,650,650,373.7,Canada,North America Arctic Islands,Victoria Island
Peak Charles,640,345,308.8,Australia,Lesser Australian Ranges,
Mount Finkol,633,633,552,Micronesia,Micronesia,Kosrae
Perahu,633,633,1185.2,French Polynesia,Polynesia,Rapa
Peak 620,620,497,512.7,Canada,North America Plains,
Pik Parnass,620,620,494.2,Russia,Scandinavia-European Arctic,Ostrov Viner-Neyshtadt
Mathiassen Mountain,611,611,343.4,Canada,North America Arctic Islands,Southampton Island
Kurildala,609,372,389.5,Australia,Great Dividing Range,
Boothia High Point,600,583,317.2,Canada,North America Arctic Islands,
Cerro Yglesias,575,575,515.4,Costa Rica,Coastal South America,Isla del Coco
Mount Gilruth,558,375,598.1,Australia,Lesser Australian Ranges,
Gora Besshoki,556,434,416.7,Kazakhstan,Central Asia Ranges,
Mont Puke,524,524,322.1,Wallis and Futuna,Melanesia,Futuna
Moumoukai,516,516,981.7,New Zealand,New Zealand,Raoul Island
Cerro Catedral,514,373,484.3,Uruguay,Southeast South America,
Hall Island High Point,507,507,310.4,United States,Alaska-Yukon Ranges,Hall Island
Maunga Terevaka,507,507,2831.7,Chile,Coastal South America,Easter Island
Mont Duff,491,491,1067.5,French Polynesia,Polynesia,Mangaréva
San Ambrosio High Point,479,479,811.8,Chile,Coastal South America,San Ambrosio
Vozvish Chetlasskiy,471,360,387.7,Russia,Eastern Europe Ranges,
Winipot,446,446,726.1,Micronesia,Micronesia,Winipot
Mont Hiro,437,437,528.3,French Polynesia,Polynesia,Raivavae
Mount De Long,426,426,481.2,Russia,Eastern Siberia,Bennett Island
North Karelian Highland High Point,417,245,332.2,Russia,Scandinavia-European Arctic,
Mount Hamilton,410,410,641.3,Australia,New Zealand,Macquarie Island
Mount Limon,389,389,599.1,Mauritius,Indian Ocean Islands,Rodrigues
Mohyla Mechetna,367,216,377.2,Ukraine,Eastern Europe Ranges,
Mount Galloway,366,366,738.5,New Zealand,New Zealand,Antipodes Islands
Murray Hill,361,361,389,Christmas Island,Malay Archipelago,Christmas Island
El Pico,350,350,316.1,Colombia,Caribbean Area,Providencia
Pawala Valley Ridge,347,347,538.5,Pitcairn Island,Polynesia,Pitcairn Island
Tsninsky,347,208,646.9,Russia,Eastern Europe Ranges,
Hara Dzyarzhynskaya,345,185,454.4,Belarus,Eastern Europe Ranges,
Wieżyca,329,275,345,Poland,Eastern Europe Ranges,
Mount Bates,319,319,744.3,Norfolk Island,New Zealand,Norfolk Island
Malpelo High Point,302,302,361.4,Colombia,Coastal South America,Malpelo
Maungatere Hill,294,294,692.9,New Zealand,New Zealand,Chatham Island
Hill 293,293,155,470.2,Russia,Eastern Europe Ranges,
Pico de la Tienda,292,292,390.8,Mexico,Polynesia,Isla Clarión
Ulakaia Hill,287,287,334.9,United States,Alaska-Yukon Ranges,St. George Island
Sirkaltotporelsek,278,147,300.7,Russia,Central Siberia,
Rotuma High Point,255,255,485,Fiji Islands,Melanesia,Rotuma
Hunter Island High Point,242,242,331.6,New Caledonia,Melanesia,Hunter Island
Mount Ngerchelchauus,242,242,862.2,Palau,Micronesia,Babelthuap
Morro do Espinhaço,223,223,405,Brazil,Mid-Atlantic Islands,Ilha Fernando de Noronha
Mount Matade,175,175,439.5,Micronesia,Micronesia,Yap
Forêt de Pout High Point,140,99,440,Senegal,West Africa Mountains,
Sugarloaf Mountain,94,75,337.6,United States,Appalachian Mountains,
Banaba High Point,81,81,993,Kiribati,Micronesia,Banaba
Town Hill,76,76,1136.1,Bermuda,Caribbean Area,Bermuda
Minamidaito-jima High Point,75,75,310.1,Japan,Japanese Archipelago,Minamidaitō-jima
Niue High Point,69,69,431.3,Niue,Polynesia,Niue
Haggit's Pillar,63,63,580.7,Antarctica,West Antarctica Ranges,Haggit's Pillar-Scott Island
Mount Alvernia,63,63,340.4,Bahamas,Caribbean Area,Cat Island
Gardner Pinnacles,58,58,369.6,United States,Polynesia,Gardner Pinnacles
Assumption Island High Dune,32,32,340.7,Seychelles,Indian Ocean Islands,Assumption Island
Sala y Gomez High Point,30,30,390.9,Chile,Coastal South America,Isla Sala y Gómez
Rocher Clipperton,29,29,952,French Polynesia,Polynesia,Clipperton Island
Rockall,17,17,301.5,United Kingdom,Northwest Europe,Rockall
Laysan High Point,15,15,384.8,United States,Polynesia,Laysan
Agatti Island High Point,15,15,351,India,Indian Ocean Islands,Agatti Island
Joes Hill,13,13,1902.8,Kiribati,Polynesia,Kiritimati
Cocos Islands High Point,11,11,959.9,Cocos Islands,Indian Ocean Islands,South Keeling
Colline D'Emerez,10,10,362,Mauritius,Indian Ocean Islands,Agaléga
Likiep High Point,10,10,850.2,Marshall Islands,Micronesia,Likiep Atoll
Minami Tori Shima High Point,9,9,1017.9,Japan,Micronesia,Minami Tori Shima
Orona Atoll High Point,9,9,988.5,Kiribati,Polynesia,Orona Atoll
Willis Island High Point,9,9,428.4,Coral Sea Islands Territory,New Guinea,Willis Island
Baker High Point,8,8,708.8,U.S. Minor Pacific Islands,Polynesia,Baker Island
Flint Island,8,8,556.4,Kiribati,Polynesia,Flint Island
Fala Ane Point,8,8,300.6,American Samoa,Polynesia,Swains Island
Diego Garcia High Point,7,7,1676.7,British Indian Ocean Territory,Indian Ocean Islands,Diego Garcia
Jarvis High Point,7,7,381.4,U.S. Minor Pacific Islands,Polynesia,Jarvis Island
Long Island High Point,7,7,557.8,New Caledonia,New Zealand,Long Island
Tromelin High Point,7,7,438.6,French Southern Lands,Indian Ocean Islands,Tromelin Island
Albatross Island High Point,6,6,438.6,Mauritius,Indian Ocean Islands,Albatross Island
Kure High Point,6,6,499.4,United States,Polynesia,Kure Atoll-Green Island
Wake High Point,6,6,1083.7,U.S. Minor Pacific Islands,Micronesia,Wake Island
Niulakita High Point,5,5,321.6,Tuvalu,Melanesia,Niulakita
Teraina High Point,5,5,447.3,Kiribati,Polynesia,Teraina
Wilingili Island High Point,3,3,733.9,Maldives,Indian Ocean Islands,Wilingili
Okinotori-shima,1,1,672.8,Japan,Micronesia,Okinotori-shima